[
    {
        "username": "admin",
        "password": "admin",
        "email": "admin@austex.com",
        "name": "Terrell",
        "surname": "Clay",
        "dateOfBirth": "1999-07-02",
        "gender": "FEMALE",
        "role": "ADMIN",
        "profilePicture": "https://worldscholarshipforum.com/wealth/wp-content/uploads/sites/4/2021/07/d12a0d17165c54b8c014ff86dad9b39c.jpg",
        "friends": [
            "Webb",
            "Bridgette",
            "Newton"
        ],
        "privateAccount": false,
        "blocked": false
    },
    {
        "username": "Newton",
        "password": "Newton48",
        "email": "newtonclay@austex.com",
        "name": "Newton",
        "surname": "Kaufman",
        "dateOfBirth": "1998-02-21",
        "gender": "MALE",
        "role": "USER",
        "profilePicture": "https://www.lboro.ac.uk/media/media/subjects/geography-environment/images/staff-profiles/pgr-students/Guy%20Tallentire.jpg",
        "friends": [
            "Webb",
            "Bridgette",
            "Rocha",
            "admin"
        ],
        "privateAccount": false,
        "blocked": false
    },
    {
        "username": "Rocha",
        "password": "Rocha75",
        "email": "rochakaufman@austex.com",
        "name": "Rocha",
        "surname": "Cleveland",
        "dateOfBirth": "2000-09-06",
        "gender": "MALE",
        "role": "USER",
        "profilePicture": "https://assets.teenvogue.com/photos/5c3fb4b2360bd63de9435f4c/master/pass/IMG_3207.JPG",
        "friends": [
            "Newton",
            "Bridgette",
            "Webb"
        ],
        "privateAccount": true,
        "blocked": false
    },
    {
        "username": "Shanna",
        "password": "Shanna35",
        "email": "shannacleveland@austex.com",
        "name": "Shanna",
        "surname": "Elliott",
        "dateOfBirth": "1994-07-07",
        "gender": "FEMALE",
        "role": "USER",
        "profilePicture": "http://www.bournemouthcameraclub.com/wp-content/uploads/black-girl.jpg",
        "friends": [
            "Webb"
        ],
        "privateAccount": true,
        "blocked": false
    },
    {
        "username": "Webb",
        "password": "Webb93",
        "email": "webbelliott@austex.com",
        "name": "Webb",
        "surname": "Sloan",
        "dateOfBirth": "1999-12-23",
        "gender": "MALE",
        "role": "USER",
        "profilePicture": "https://media.istockphoto.com/photos/gorgeous-woman-posing-on-camera-picture-id1191507674?b=1&k=20&m=1191507674&s=170667a&w=0&h=aDAkTtcBhoGNiJ0rPmmm-0AbuVyIdpwt3_Gu1VvYcMc=",
        "friends": [
            "Newton",
            "Bridgette",
            "admin",
            "Rocha",
            "Shanna"
        ],
        "privateAccount": false,
        "blocked": false
    },
    {
        "username": "Bridgette",
        "password": "Bridgette89",
        "email": "bridgettesloan@austex.com",
        "name": "Bridgette",
        "surname": "Brooks",
        "dateOfBirth": "2002-10-28",
        "gender": "FEMALE",
        "role": "USER",
        "profilePicture": "https://thefourmodels.com/wp-content/uploads/2021/10/Abby-Benson3.jpg",
        "friends": [
            "Webb",
            "Newton",
            "admin",
            "Rocha"
        ],
        "privateAccount": false,
        "blocked": false
    }
]